{
    "axis_entry": {
        "alternate_hybrid_sigma": {
            "standard_name": "atmosphere_hybrid_sigma_pressure_coordinate", 
            "units": "1", 
            "axis": "Z", 
            "long_name": "hybrid sigma pressure coordinate", 
            "climatology": "", 
            "formula": "p = ap + b*ps", 
            "must_have_bounds": "yes", 
            "out_name": "lev", 
            "positive": "down", 
            "requested": "", 
            "requested_bounds": "", 
            "stored_direction": "decreasing", 
            "tolerance": "", 
            "type": "", 
            "valid_max": "1.0", 
            "valid_min": "0.0", 
            "value": "", 
            "z_bounds_factors": "ap: ap_bnds b: b_bnds ps: ps", 
            "z_factors": "ap: ap b: b ps: ps", 
            "bounds_values": "", 
            "generic_level_name": "alevel"
        }, 
        "alternate_hybrid_sigma_half": {
            "standard_name": "atmosphere_hybrid_sigma_pressure_coordinate", 
            "units": "1", 
            "axis": "Z", 
            "long_name": "hybrid sigma pressure coordinate", 
            "climatology": "", 
            "formula": "p = ap + b*ps", 
            "must_have_bounds": "no", 
            "out_name": "lev", 
            "positive": "down", 
            "requested": "", 
            "requested_bounds": "", 
            "stored_direction": "decreasing", 
            "tolerance": "", 
            "type": "", 
            "valid_max": "1.0", 
            "valid_min": "0.0", 
            "value": "", 
            "z_bounds_factors": "", 
            "z_factors": "ap: ap b: b ps: ps", 
            "bounds_values": "", 
            "generic_level_name": "alevhalf"
        }, 
        "height10m": {
            "standard_name": "height", 
            "units": "m", 
            "axis": "Z", 
            "long_name": "height", 
            "climatology": "", 
            "formula": "", 
            "must_have_bounds": "no", 
            "out_name": "height", 
            "positive": "up", 
            "requested": "", 
            "requested_bounds": "", 
            "stored_direction": "increasing", 
            "tolerance": "", 
            "type": "double", 
            "valid_max": "30.0", 
            "valid_min": "1.0", 
            "value": "10.", 
            "z_bounds_factors": "", 
            "z_factors": "", 
            "bounds_values": "", 
            "generic_level_name": ""
        }, 
        "height2m": {
            "standard_name": "height", 
            "units": "m", 
            "axis": "Z", 
            "long_name": "height", 
            "climatology": "", 
            "formula": "", 
            "must_have_bounds": "no", 
            "out_name": "height", 
            "positive": "up", 
            "requested": "", 
            "requested_bounds": "", 
            "stored_direction": "increasing", 
            "tolerance": "", 
            "type": "double", 
            "valid_max": "10.0", 
            "valid_min": "1.0", 
            "value": "2.", 
            "z_bounds_factors": "", 
            "z_factors": "", 
            "bounds_values": "", 
            "generic_level_name": ""
        }, 
        "hybrid_height": {
            "standard_name": "atmosphere_hybrid_height_coordinate", 
            "units": "m", 
            "axis": "Z", 
            "long_name": "hybrid height coordinate", 
            "climatology": "", 
            "formula": "z = a + b*orog", 
            "must_have_bounds": "yes", 
            "out_name": "lev", 
            "positive": "up", 
            "requested": "", 
            "requested_bounds": "", 
            "stored_direction": "increasing", 
            "tolerance": "", 
            "type": "", 
            "valid_max": "", 
            "valid_min": "0.0", 
            "value": "", 
            "z_bounds_factors": "a: lev_bnds b: b_bnds orog: orog", 
            "z_factors": "a: lev b: b orog: orog", 
            "bounds_values": "", 
            "generic_level_name": "alevel"
        }, 
        "hybrid_height_half": {
            "standard_name": "atmosphere_hybrid_height_coordinate", 
            "units": "m", 
            "axis": "Z", 
            "long_name": "hybrid height coordinate", 
            "climatology": "", 
            "formula": "z = a + b*orog", 
            "must_have_bounds": "no", 
            "out_name": "lev", 
            "positive": "up", 
            "requested": "", 
            "requested_bounds": "", 
            "stored_direction": "increasing", 
            "tolerance": "", 
            "type": "", 
            "valid_max": "", 
            "valid_min": "0.0", 
            "value": "", 
            "z_bounds_factors": "", 
            "z_factors": "a: lev b: b orog: orog", 
            "bounds_values": "", 
            "generic_level_name": "alevhalf"
        }, 
        "latitude": {
            "standard_name": "latitude", 
            "units": "degrees_north", 
            "axis": "Y", 
            "long_name": "Latitude", 
            "climatology": "", 
            "formula": "", 
            "must_have_bounds": "yes", 
            "out_name": "lat", 
            "positive": "", 
            "requested": "", 
            "requested_bounds": "", 
            "stored_direction": "increasing", 
            "tolerance": "", 
            "type": "double", 
            "valid_max": "90.0", 
            "valid_min": "-90.0", 
            "value": "", 
            "z_bounds_factors": "", 
            "z_factors": "", 
            "bounds_values": "", 
            "generic_level_name": ""
        }, 
        "longitude": {
            "standard_name": "longitude", 
            "units": "degrees_east", 
            "axis": "X", 
            "long_name": "Longitude", 
            "climatology": "", 
            "formula": "", 
            "must_have_bounds": "yes", 
            "out_name": "lon", 
            "positive": "", 
            "requested": "", 
            "requested_bounds": "", 
            "stored_direction": "increasing", 
            "tolerance": "", 
            "type": "double", 
            "valid_max": "360.0", 
            "valid_min": "0.0", 
            "value": "", 
            "z_bounds_factors": "", 
            "z_factors": "", 
            "bounds_values": "", 
            "generic_level_name": ""
        }, 
        "qboi30": {
            "standard_name": "air_pressure", 
            "units": "Pa", 
            "axis": "Z", 
            "long_name": "pressure", 
            "climatology": "", 
            "formula": "", 
            "must_have_bounds": "no", 
            "out_name": "plev", 
            "positive": "down", 
            "requested": [
                "100000.", 
                "92500.", 
                "85000.", 
                "70000.", 
                "60000.", 
                "50000.", 
                "40000.", 
                "30000.", 
                "25000.", 
                "20000.", 
                "17500.", 
                "15000.", 
                "12000.", 
                "10000.", 
                "8500.", 
                "7000.", 
                "6000.", 
                "5000.", 
                "4000.", 
                "3000.", 
                "2000.", 
                "1500.", 
                "1000.", 
                "700.", 
                "500.", 
                "300.", 
                "200.", 
                "150.", 
                "100.", 
                "40." 
            ], 
            "requested_bounds": "", 
            "stored_direction": "decreasing", 
            "tolerance": "", 
            "type": "double", 
            "valid_max": "", 
            "valid_min": "", 
            "value": "", 
            "z_bounds_factors": "", 
            "z_factors": "", 
            "bounds_values": "", 
            "generic_level_name": ""
        }, 
        "qboiplevm": {
            "comment": "Pressure levels at model-levels resolution, spanning the range 150 hPa to 0.4 hPa. Exact levels should be chosen as close as possible to model levels in the stratosphere / upper troposphere and hence will be model-dependent.",
            "standard_name": "air_pressure", 
            "units": "Pa", 
            "axis": "Z", 
            "long_name": "pressure", 
            "climatology": "", 
            "formula": "", 
            "must_have_bounds": "no", 
            "out_name": "plev", 
            "positive": "down", 
            "requested": "", 
            "requested_bounds": "", 
            "stored_direction": "decreasing", 
            "tolerance": "", 
            "type": "double", 
            "valid_max": "", 
            "valid_min": "", 
            "value": "", 
            "z_bounds_factors": "", 
            "z_factors": "", 
            "bounds_values": "", 
            "generic_level_name": ""
        }, 
       "plev8": {
            "standard_name": "air_pressure", 
            "units": "Pa", 
            "axis": "Z", 
            "long_name": "pressure", 
            "climatology": "", 
            "formula": "", 
            "must_have_bounds": "no", 
            "out_name": "plev", 
            "positive": "down", 
            "requested": [
                "100000.", 
                "85000.", 
                "70000.", 
                "50000.", 
                "25000.", 
                "10000.", 
                "5000.", 
                "1000."
            ], 
            "requested_bounds": "", 
            "stored_direction": "decreasing", 
            "tolerance": "", 
            "type": "double", 
            "valid_max": "", 
            "valid_min": "", 
            "value": "", 
            "z_bounds_factors": "", 
            "z_factors": "", 
            "bounds_values": "", 
            "generic_level_name": ""
        }, 
        "p200": {
            "standard_name": "air_pressure", 
            "units": "Pa", 
            "axis": "Z", 
            "long_name": "pressure", 
            "climatology": "", 
            "formula": "", 
            "must_have_bounds": "no", 
            "out_name": "plev", 
            "positive": "down", 
            "requested": "", 
            "requested_bounds": "", 
            "stored_direction": "", 
            "tolerance": "", 
            "type": "double", 
            "valid_max": "", 
            "valid_min": "", 
            "value": "20000.", 
            "z_bounds_factors": "", 
            "z_factors": "", 
            "bounds_values": "", 
            "generic_level_name": ""
        }, 
        "p850": {
            "standard_name": "air_pressure", 
            "units": "Pa", 
            "axis": "Z", 
            "long_name": "pressure", 
            "climatology": "", 
            "formula": "", 
            "must_have_bounds": "no", 
            "out_name": "plev", 
            "positive": "down", 
            "requested": "", 
            "requested_bounds": "", 
            "stored_direction": "", 
            "tolerance": "", 
            "type": "double", 
            "valid_max": "", 
            "valid_min": "", 
            "value": "85000.", 
            "z_bounds_factors": "", 
            "z_factors": "", 
            "bounds_values": "", 
            "generic_level_name": ""
        }, 
        "standard_hybrid_sigma": {
            "standard_name": "atmosphere_hybrid_sigma_pressure_coordinate", 
            "units": "1", 
            "axis": "Z", 
            "long_name": "hybrid sigma pressure coordinate", 
            "climatology": "", 
            "formula": "p = a*p0 + b*ps", 
            "must_have_bounds": "yes", 
            "out_name": "lev", 
            "positive": "down", 
            "requested": "", 
            "requested_bounds": "", 
            "stored_direction": "decreasing", 
            "tolerance": "", 
            "type": "", 
            "valid_max": "1.0", 
            "valid_min": "0.0", 
            "value": "", 
            "z_bounds_factors": "p0: p0 a: a_bnds b: b_bnds ps: ps", 
            "z_factors": "p0: p0 a: a b: b ps: ps", 
            "bounds_values": "", 
            "generic_level_name": "alevel"
        }, 
        "standard_hybrid_sigma_half": {
            "standard_name": "atmosphere_hybrid_sigma_pressure_coordinate", 
            "units": "1", 
            "axis": "Z", 
            "long_name": "hybrid sigma pressure coordinate", 
            "climatology": "", 
            "formula": "p = a*p0 + b*ps", 
            "must_have_bounds": "no", 
            "out_name": "lev", 
            "positive": "down", 
            "requested": "", 
            "requested_bounds": "", 
            "stored_direction": "decreasing", 
            "tolerance": "", 
            "type": "", 
            "valid_max": "1.0", 
            "valid_min": "0.0", 
            "value": "", 
            "z_bounds_factors": "", 
            "z_factors": "p0: p0 a: a b: b ps: ps", 
            "bounds_values": "", 
            "generic_level_name": "alevhalf"
        }, 
        "standard_sigma": {
            "standard_name": "atmosphere_sigma_coordinate", 
            "units": "", 
            "axis": "Z", 
            "long_name": "sigma coordinate", 
            "climatology": "", 
            "formula": "p = ptop + sigma*(ps - ptop)", 
            "must_have_bounds": "yes", 
            "out_name": "lev", 
            "positive": "down", 
            "requested": "", 
            "requested_bounds": "", 
            "stored_direction": "decreasing", 
            "tolerance": "", 
            "type": "", 
            "valid_max": "1.0", 
            "valid_min": "0.0", 
            "value": "", 
            "z_bounds_factors": "ptop: ptop sigma: lev_bnds ps: ps", 
            "z_factors": "ptop: ptop sigma: lev ps: ps", 
            "bounds_values": "", 
            "generic_level_name": "alevel"
        }, 
        "standard_sigma_half": {
            "standard_name": "atmosphere_sigma_coordinate", 
            "units": "", 
            "axis": "Z", 
            "long_name": "sigma coordinate", 
            "climatology": "", 
            "formula": "p = ptop + sigma*(ps - ptop)", 
            "must_have_bounds": "no", 
            "out_name": "lev", 
            "positive": "down", 
            "requested": "", 
            "requested_bounds": "", 
            "stored_direction": "decreasing", 
            "tolerance": "", 
            "type": "", 
            "valid_max": "1.0", 
            "valid_min": "0.0", 
            "value": "", 
            "z_bounds_factors": "", 
            "z_factors": "ptop: ptop sigma: lev ps: ps", 
            "bounds_values": "", 
            "generic_level_name": "alevhalf"
        }, 
        "time": {
            "standard_name": "time", 
            "units": "days since ?", 
            "axis": "T", 
            "long_name": "time", 
            "climatology": "", 
            "formula": "", 
            "must_have_bounds": "yes", 
            "out_name": "time", 
            "positive": "", 
            "requested": "", 
            "requested_bounds": "", 
            "stored_direction": "increasing", 
            "tolerance": "", 
            "type": "double", 
            "valid_max": "", 
            "valid_min": "", 
            "value": "", 
            "z_bounds_factors": "", 
            "z_factors": "", 
            "bounds_values": "", 
            "generic_level_name": ""
        }, 
        "time1": {
            "standard_name": "time", 
            "units": "days since ?", 
            "axis": "T", 
            "long_name": "time", 
            "climatology": "", 
            "formula": "", 
            "must_have_bounds": "no", 
            "out_name": "time", 
            "positive": "", 
            "requested": "", 
            "requested_bounds": "", 
            "stored_direction": "increasing", 
            "tolerance": "", 
            "type": "double", 
            "valid_max": "", 
            "valid_min": "", 
            "value": "", 
            "z_bounds_factors": "", 
            "z_factors": "", 
            "bounds_values": "", 
            "generic_level_name": ""
        }, 
        "time2": {
            "standard_name": "time", 
            "units": "days since ?", 
            "axis": "T", 
            "long_name": "time", 
            "climatology": "yes", 
            "formula": "", 
            "must_have_bounds": "yes", 
            "out_name": "time", 
            "positive": "", 
            "requested": "", 
            "requested_bounds": "", 
            "stored_direction": "increasing", 
            "tolerance": "", 
            "type": "double", 
            "valid_max": "", 
            "valid_min": "", 
            "value": "", 
            "z_bounds_factors": "", 
            "z_factors": "", 
            "bounds_values": "", 
            "generic_level_name": ""
        }, 
        "time3": {
            "standard_name": "time", 
            "units": "days since ?", 
            "axis": "T", 
            "long_name": "time", 
            "climatology": "yes", 
            "formula": "", 
            "must_have_bounds": "yes", 
            "out_name": "time", 
            "positive": "", 
            "requested": "", 
            "requested_bounds": "", 
            "stored_direction": "increasing", 
            "tolerance": "", 
            "type": "double", 
            "valid_max": "", 
            "valid_min": "", 
            "value": "", 
            "z_bounds_factors": "", 
            "z_factors": "", 
            "bounds_values": "", 
            "generic_level_name": ""
        }
    }
}
