{
    "Header": {
        "data_specs_version": "01.00.00", 
        "cmor_version": "3.5", 
        "table_id": "Table dayZ", 
        "realm": "atmos", 
        "table_date": "11 Feb 2022", 
        "missing_value": "1e20", 
        "int_missing_value": "-999", 
        "product": "model-output", 
        "approx_interval": "1.00000", 
        "generic_levels": "", 
        "Conventions": "CF-1.8 QBOi"
    }, 
    "variable_entry": {
        "epfy": {
            "frequency": "day", 
            "modeling_realm": "atmos", 
            "standard_name": "northward_eliassen_palm_flux_in_air", 
            "units": "m3 s-2", 
            "cell_methods": "longitude: mean time: mean", 
            "cell_measures": "", 
            "long_name": "Northward Component of the Eliassen-Palm Flux", 
            "comment": "Transformed Eulerian Mean Diagnostics Meridional component Fy of Eliassen-Palm (EP) flux (Fy, Fz) derived from 6hr or higher frequency fields (use daily fields or 12 hr fields if the 6 hr are not available). Please use the definitions given by equation 3.5.3a of Andrews, Holton and Leovy text book, but scaled by density to have units m3 s-2.", 
            "dimensions": "latitude qboi30 time", 
            "out_name": "epfy", 
            "type": "real", 
            "positive": "", 
            "valid_min": "", 
            "valid_max": "",
            "ok_min_mean_abs": "", 
            "ok_max_mean_abs": ""
        }, 
        "epfz": {
            "frequency": "day", 
            "modeling_realm": "atmos", 
            "standard_name": "upward_eliassen_palm_flux_in_air", 
            "units": "m3 s-2", 
            "cell_methods": "longitude: mean time: mean", 
            "cell_measures": "", 
            "long_name": "Upward Component of the Eliassen-Palm Flux", 
            "comment": "Transformed Eulerian Mean Diagnostics Meridional component Fz of the Eliassen-Palm (EP) flux (Fy, Fz) derived from 6hr or higher frequency fields (use daily fields or 12 hr fields if the 6 hr are not available). Please use the definitions given by equation 3.5.3b of Andrews, Holton and Leovy text book, but scaled by density to have units m3 s-2.", 
            "dimensions": "latitude qboi30 time", 
            "out_name": "epfz", 
            "type": "real", 
            "positive": "up", 
            "valid_min": "", 
            "valid_max": "",
            "ok_min_mean_abs": "", 
            "ok_max_mean_abs": ""
        }, 
        "hus": {
            "frequency": "day", 
            "modeling_realm": "atmos", 
            "standard_name": "specific_humidity", 
            "units": "kg kg-1", 
            "cell_methods": "longitude: mean time: mean", 
            "cell_measures": "", 
            "long_name": "Specific Humidity", 
            "comment": "Specific humidity is the mass fraction of water vapor in (moist) air.", 
            "dimensions": "latitude qboi30 time", 
            "out_name": "hus", 
            "type": "real", 
            "positive": "", 
            "valid_min": "", 
            "valid_max": "", 
            "ok_min_mean_abs": "", 
            "ok_max_mean_abs": ""
        }, 
        "o3": {
            "frequency": "day", 
            "modeling_realm": "atmos atmosChem", 
            "standard_name": "mole_fraction_of_ozone_in_air", 
            "units": "mol mol-1", 
            "cell_methods": "longitude: mean time: mean", 
            "cell_measures": "area: areacella", 
            "long_name": "Mole Fraction of O3", 
            "comment": "Mole fraction is used in the construction mole_fraction_of_X_in_Y, where X is a material constituent of Y.", 
            "dimensions": "latitude qboi30 time", 
            "out_name": "o3", 
            "type": "real", 
            "positive": "", 
            "valid_min": "", 
            "valid_max": "", 
            "ok_min_mean_abs": "", 
            "ok_max_mean_abs": ""
        }, 
        "psitem": {
            "frequency": "day", 
            "modeling_realm": "atmos", 
            "standard_name": "atmosphere_transformed_eulerian_mean_meridional_overturning_mass_streamfunction", 
            "units": "kg s-1", 
            "cell_methods": "longitude: mean time: mean", 
            "cell_measures": "", 
            "long_name": "Transformed Eulerian Mean Mass Streamfunction", 
            "comment": "Residual mass streamfunction, computed from vstar and integrated from the top of the atmosphere (on the native model grid). Reference: Andrews et al (1987): Middle Atmospheric Dynamics. Academic Press.", 
            "dimensions": "latitude qboi30 time", 
            "out_name": "psitem", 
            "type": "real", 
            "positive": "", 
            "valid_min": "", 
            "valid_max": "", 
            "ok_min_mean_abs": "", 
            "ok_max_mean_abs": ""
        }, 
        "ta": {
            "frequency": "day", 
            "modeling_realm": "atmos", 
            "standard_name": "air_temperature", 
            "units": "K", 
            "cell_methods": "longitude: mean time: mean", 
            "cell_measures": "", 
            "long_name": "Air Temperature", 
            "comment": "Air Temperature", 
            "dimensions": "latitude qboi30 time", 
            "out_name": "ta", 
            "type": "real", 
            "positive": "", 
            "valid_min": "", 
            "valid_max": "", 
            "ok_min_mean_abs": "", 
            "ok_max_mean_abs": ""
        }, 
        "tntmp": {
            "frequency": "day", 
            "modeling_realm": "atmos", 
            "standard_name": "tendency_of_air_temperature_due_to_model_physics", 
            "units": "K s-1", 
            "cell_methods": "longitude: mean time: mean", 
            "cell_measures": "", 
            "long_name": "Tendency of Air Temperature Due to Model Physics", 
            "comment": "Tendency of air temperature due to model physics. This includes sources and sinks from parametrized physics (e.g. radiation, convection, boundary layer, stratiform condensation/evaporation, etc.). It excludes sources and sinks from resolved dynamics and numerical diffusion not associated with parametrized physics.  For example, any vertical diffusion which is part of the boundary layer mixing scheme should be included, while numerical diffusion applied in addition to physics or resolved dynamics should be excluded.  This term is required to check the closure of the heat budget.", 
            "dimensions": "latitude qboi30 time", 
            "out_name": "tntmp", 
            "type": "real", 
            "positive": "", 
            "valid_min": "", 
            "valid_max": "", 
            "ok_min_mean_abs": "", 
            "ok_max_mean_abs": ""
        }, 
        "tntrl": {
            "frequency": "day", 
            "modeling_realm": "atmos", 
            "standard_name": "tendency_of_air_temperature_due_to_longwave_heating", 
            "units": "K s-1", 
            "cell_methods": "longitude: mean time: mean", 
            "cell_measures": "", 
            "long_name": "Tendency of Air Temperature Due to Longwave Radiative Heating", 
            "comment": "Tendency of air temperature due to longwave radiative heating", 
            "dimensions": "latitude qboi30 time", 
            "out_name": "tntrl", 
            "type": "real", 
            "positive": "", 
            "valid_min": "", 
            "valid_max": "", 
            "ok_min_mean_abs": "", 
            "ok_max_mean_abs": ""
        }, 
        "tntrs": {
            "frequency": "day", 
            "modeling_realm": "atmos", 
            "standard_name": "tendency_of_air_temperature_due_to_shortwave_heating", 
            "units": "K s-1", 
            "cell_methods": "longitude: mean time: mean", 
            "cell_measures": "", 
            "long_name": "Tendency of Air Temperature Due to Shortwave Radiative Heating", 
            "comment": "Tendency of air temperature due to shortwave radiative heating", 
            "dimensions": "latitude qboi30 time", 
            "out_name": "tntrs", 
            "type": "real", 
            "positive": "", 
            "valid_min": "", 
            "valid_max": "", 
            "ok_min_mean_abs": "", 
            "ok_max_mean_abs": ""
        }, 
        "ua": {
            "frequency": "day", 
            "modeling_realm": "atmos", 
            "standard_name": "eastward_wind", 
            "units": "m s-1", 
            "cell_methods": "longitude: mean time: mean", 
            "cell_measures": "", 
            "long_name": "Eastward Wind", 
            "comment": "Zonal wind (positive in a eastward direction).", 
            "dimensions": "latitude qboi30 time", 
            "out_name": "ua", 
            "type": "real", 
            "positive": "", 
            "valid_min": "", 
            "valid_max": "", 
            "ok_min_mean_abs": "", 
            "ok_max_mean_abs": ""
        }, 
        "utendepfd": {
            "frequency": "day", 
            "modeling_realm": "atmos", 
            "standard_name": "tendency_of_eastward_wind_due_to_eliassen_palm_flux_divergence", 
            "units": "m s-2", 
            "cell_methods": "longitude: mean time: mean", 
            "cell_measures": "", 
            "long_name": "Tendency of Eastward Wind Due to Eliassen-Palm Flux Divergence", 
            "comment": "Tendency of the zonal mean zonal wind due to the divergence of the Eliassen-Palm flux.", 
            "dimensions": "latitude qboi30 time", 
            "out_name": "utendepfd", 
            "type": "real", 
            "positive": "", 
            "valid_min": "", 
            "valid_max": "", 
            "ok_min_mean_abs": "", 
            "ok_max_mean_abs": ""
        }, 
        "utendmp": {
            "frequency": "day", 
            "modeling_realm": "atmos", 
            "standard_name": "tendency_of_eastward_wind_due_to_model_physics", 
            "units": "m s-2", 
            "cell_methods": "longitude: mean time: mean", 
            "cell_measures": "area: areacella", 
            "long_name": "Tendency of Eastward Wind Due to Model Physics", 
            "comment": "Tendency of eastward wind due to model physics. This includes sources and sinks from parametrized physics. It excludes sources and sinks from resolved dynamics and numerical diffusion not associated with parametrized physics. For example, any vertical diffusion which is part of the boundary layer mixing scheme should be included, while numerical diffusion applied in addition to physics or resolved dynamics should be excluded.  This term is required to check the closure of the momentum budget.", 
            "dimensions": "latitude qboi30 time", 
            "out_name": "utendmp", 
            "type": "real", 
            "positive": "", 
            "valid_min": "", 
            "valid_max": "", 
            "ok_min_mean_abs": "", 
            "ok_max_mean_abs": ""
        },
        "utendnd": {
            "frequency": "day",
            "modeling_realm": "atmos", 
            "standard_name": "tendency_of_eastward_wind_due_to_imposed_relaxation", 
            "units": "m s-2", 
            "cell_methods": "longitude: mean time: mean", 
            "cell_measures": "area: areacella", 
            "long_name": "Tendency of Eastward Wind Due to Imposed Relaxation", 
            "comment": "Tendency of the eastward wind due to imposed relaxation.", 
            "dimensions": "latitude qboi30 time", 
            "out_name": "utendnd", 
            "type": "real", 
            "positive": "", 
            "valid_min": "", 
            "valid_max": "", 
            "ok_min_mean_abs": "", 
            "ok_max_mean_abs": ""
        },
        "utendnogw": {
            "frequency": "day", 
            "modeling_realm": "atmos", 
            "standard_name": "tendency_of_eastward_wind_due_to_nonorographic_gravity_wave_drag", 
            "units": "m s-2", 
            "cell_methods": "longitude: mean time: mean", 
            "cell_measures": "", 
            "long_name": "Eastward Acceleration Due to Non-Orographic Gravity Wave Drag", 
            "comment": "Tendency of the eastward wind by parameterized nonorographic gravity waves.", 
            "dimensions": "latitude qboi30 time", 
            "out_name": "utendnogw", 
            "type": "real", 
            "positive": "", 
            "valid_min": "", 
            "valid_max": "", 
            "ok_min_mean_abs": "", 
            "ok_max_mean_abs": ""
        }, 
        "utendogw": {
            "frequency": "day", 
            "modeling_realm": "atmos", 
            "standard_name": "tendency_of_eastward_wind_due_to_orographic_gravity_wave_drag", 
            "units": "m s-2", 
            "cell_methods": "longitude: mean time: mean", 
            "cell_measures": "", 
            "long_name": "Eastward Acceleration Due to Orographic Gravity Wave Drag", 
            "comment": "Tendency of the eastward wind by parameterized orographic gravity waves.", 
            "dimensions": "latitude qboi30 time", 
            "out_name": "utendogw", 
            "type": "real", 
            "positive": "", 
            "valid_min": "", 
            "valid_max": "", 
            "ok_min_mean_abs": "", 
            "ok_max_mean_abs": ""
        }, 
        "utendvtem": {
            "frequency": "day", 
            "modeling_realm": "atmos", 
            "standard_name": "tendency_of_eastward_wind_due_to_advection_by_northward_transformed_eulerian_mean_air_velocity", 
            "units": "m s-2", 
            "cell_methods": "longitude: mean time: mean", 
            "cell_measures": "", 
            "long_name": "Tendency of Eastward Wind Due to TEM Northward Advection and Coriolis Term", 
            "comment": "Tendency of zonally averaged eastward wind, by the residual northward wind advection (on the native model grid). Reference: Andrews et al (1987): Middle Atmospheric Dynamics. Academic Press.", 
            "dimensions": "latitude qboi30 time", 
            "out_name": "utendvtem", 
            "type": "real", 
            "positive": "", 
            "valid_min": "", 
            "valid_max": "", 
            "ok_min_mean_abs": "", 
            "ok_max_mean_abs": ""
        }, 
        "utendwtem": {
            "frequency": "day", 
            "modeling_realm": "atmos", 
            "standard_name": "tendency_of_eastward_wind_due_to_advection_by_upward_transformed_eulerian_mean_air_velocity", 
            "units": "m s-2", 
            "cell_methods": "longitude: mean time: mean", 
            "cell_measures": "", 
            "long_name": "Tendency of Eastward Wind Due to TEM Upward Advection", 
            "comment": "Tendency of zonally averaged eastward wind, by the residual upward wind advection (on the native model grid). Reference: Andrews et al (1987): Middle Atmospheric Dynamics. Academic Press.", 
            "dimensions": "latitude qboi30 time", 
            "out_name": "utendwtem", 
            "type": "real", 
            "positive": "", 
            "valid_min": "", 
            "valid_max": "", 
            "ok_min_mean_abs": "", 
            "ok_max_mean_abs": ""
        }, 
        "vtem": {
            "frequency": "day", 
            "modeling_realm": "atmos", 
            "standard_name": "northward_transformed_eulerian_mean_air_velocity", 
            "units": "m s-1", 
            "cell_methods": "longitude: mean time: mean", 
            "cell_measures": "", 
            "long_name": "Transformed Eulerian Mean Northward Wind", 
            "comment": "Transformed Eulerian Mean Diagnostics v*, meridional component of the residual meridional circulation (v*, w*) derived from 6 hr or higher frequency data fields (use instantaneous daily fields or 12 hr fields if the 6 hr data are not available).", 
            "dimensions": "latitude qboi30 time", 
            "out_name": "vtem", 
            "type": "real", 
            "positive": "", 
            "valid_min": "", 
            "valid_max": "", 
            "ok_min_mean_abs": "", 
            "ok_max_mean_abs": ""
        }, 
        "wtem": {
            "frequency": "day", 
            "modeling_realm": "atmos", 
            "standard_name": "upward_transformed_eulerian_mean_air_velocity", 
            "units": "m s-1", 
            "cell_methods": "longitude: mean time: mean", 
            "cell_measures": "", 
            "long_name": "Transformed Eulerian Mean Upward Wind", 
            "comment": "Transformed Eulerian Mean Diagnostics w*, upward component of the residual meridional circulation (v*, w*) derived from 6 hr or higher frequency data fields (use instantaneous daily fields or 12 hr fields if the 6 hr data are not available). Scale height: 6950 m", 
            "dimensions": "latitude qboi30 time", 
            "out_name": "wtem", 
            "type": "real", 
            "positive": "", 
            "valid_min": "", 
            "valid_max": "", 
            "ok_min_mean_abs": "", 
            "ok_max_mean_abs": ""
        }, 
        "zg": {
            "frequency": "day", 
            "modeling_realm": "atmos", 
            "standard_name": "geopotential_height", 
            "units": "m", 
            "cell_methods": "longitude: mean time: mean", 
            "cell_measures": "", 
            "long_name": "Geopotential Height", 
            "comment": "Geopotential is the sum of the specific gravitational potential energy relative to the geoid and the specific centripetal potential energy. Geopotential height is the geopotential divided by the standard acceleration due to gravity. It is numerically similar to the altitude (or geometric height) and not to the quantity with standard name height, which is relative to the surface.", 
            "dimensions": "latitude qboi30 time", 
            "out_name": "zg", 
            "type": "real", 
            "positive": "", 
            "valid_min": "", 
            "valid_max": "", 
            "ok_min_mean_abs": "", 
            "ok_max_mean_abs": ""
        }
    }
}
